%YAML 1.1
%TAG !u! tag:unity3d.com,2011:
--- !u!1045 &1
EditorBuildSettings:
  m_ObjectHideFlags: 0
  serializedVersion: 2
  m_Scenes:
  - enabled: 0
    path: 
    guid: 00000000000000000000000000000000
  - enabled: 1
    path: Assets/Scenes/GameScene_MainMenu.unity
    guid: 7de59b0dda69ae94482b8962cc1c6a74
  - enabled: 1
    path: Assets/Scenes/GameScene_EndlessRunner.unity
    guid: a42eedd682abfe6449c8a63e4d2f5502
  m_configObjects: {}
